<?xml version="1.0" encoding="UTF-8"?><svg xmlns="http://www.w3.org/2000/svg" xmlns:xlink="http://www.w3.org/1999/xlink" fill-opacity="1" color-rendering="auto" color-interpolation="auto" text-rendering="auto" stroke="black" stroke-linecap="square" width="2111" stroke-miterlimit="10" shape-rendering="auto" stroke-opacity="1" fill="black" stroke-dasharray="none" font-weight="normal" stroke-width="1" height="1189" font-family="'Dialog'" font-style="normal" stroke-linejoin="miter" font-size="12px" stroke-dashoffset="0" image-rendering="auto">
  <!--Generated by ySVG 2.5-->
  <defs id="genericDefs"/>
  <g>
    <defs id="defs1">
      <clipPath clipPathUnits="userSpaceOnUse" id="clipPath1">
        <path d="M0 0 L2111 0 L2111 1189 L0 1189 L0 0 Z"/>
      </clipPath>
      <clipPath clipPathUnits="userSpaceOnUse" id="clipPath2">
        <path d="M-536 -34 L1575 -34 L1575 1155 L-536 1155 L-536 -34 Z"/>
      </clipPath>
      <clipPath clipPathUnits="userSpaceOnUse" id="clipPath3">
        <path d="M299.0654 -1547.0156 L299.0654 563.9844 L-889.9346 563.9844 L-889.9346 -1547.0156 L299.0654 -1547.0156 Z"/>
      </clipPath>
      <clipPath clipPathUnits="userSpaceOnUse" id="clipPath4">
        <path d="M-818.7104 -877.737 L1085.6949 33.0656 L572.6943 1105.7031 L-1331.7111 194.9006 L-818.7104 -877.737 Z"/>
      </clipPath>
      <clipPath clipPathUnits="userSpaceOnUse" id="clipPath5">
        <path d="M-782.2086 -851.112 L1122.1968 59.6906 L609.1961 1132.3281 L-1295.2092 221.5256 L-782.2086 -851.112 Z"/>
      </clipPath>
      <clipPath clipPathUnits="userSpaceOnUse" id="clipPath6">
        <path d="M314.0654 -2057.0156 L314.0654 53.9844 L-874.9346 53.9844 L-874.9346 -2057.0156 L314.0654 -2057.0156 Z"/>
      </clipPath>
      <clipPath clipPathUnits="userSpaceOnUse" id="clipPath7">
        <path d="M-1326.5123 -183.6867 L549.7191 -1151.1973 L1094.6599 -94.4284 L-781.5715 873.0822 L-1326.5123 -183.6867 Z"/>
      </clipPath>
      <clipPath clipPathUnits="userSpaceOnUse" id="clipPath8">
        <path d="M-1236.1746 -157.0617 L640.0568 -1124.5723 L1184.9976 -67.8034 L-691.2338 899.7072 L-1236.1746 -157.0617 Z"/>
      </clipPath>
    </defs>
    <g fill="white" text-rendering="geometricPrecision" shape-rendering="geometricPrecision" transform="translate(536,34)" stroke="white">
      <rect x="-536" width="2111" height="1189" y="-34" clip-path="url(#clipPath2)" stroke="none"/>
    </g>
    <g fill="rgb(245,245,245)" text-rendering="geometricPrecision" shape-rendering="geometricPrecision" transform="matrix(1,0,0,1,536,34)" stroke="rgb(245,245,245)">
      <rect x="-520" y="446" clip-path="url(#clipPath2)" width="430" rx="4" ry="4" height="244" stroke="none"/>
      <rect x="-520" y="446" clip-path="url(#clipPath2)" fill="rgb(235,235,235)" width="430" height="4" stroke="none"/>
    </g>
    <g text-rendering="geometricPrecision" stroke-miterlimit="1.45" stroke-dasharray="6,2" shape-rendering="geometricPrecision" transform="matrix(1,0,0,1,536,34)" stroke-linecap="butt">
      <rect x="-520" y="446" clip-path="url(#clipPath2)" fill="none" width="430" rx="4" ry="4" height="244"/>
    </g>
    <g fill="rgb(255,204,0)" text-rendering="geometricPrecision" shape-rendering="geometricPrecision" transform="matrix(1,0,0,1,536,34)" stroke="rgb(255,204,0)">
      <rect x="-324" width="48" height="30" y="645" clip-path="url(#clipPath2)" stroke="none"/>
    </g>
    <g text-rendering="geometricPrecision" stroke-miterlimit="1.45" shape-rendering="geometricPrecision" transform="matrix(1,0,0,1,536,34)" stroke-linecap="butt">
      <rect fill="none" x="-324" width="48" height="30" y="645" clip-path="url(#clipPath2)"/>
      <text x="-315.8203" xml:space="preserve" y="664.1543" clip-path="url(#clipPath2)" font-family="sans-serif" stroke="none">BASE</text>
    </g>
    <g fill="rgb(255,204,0)" text-rendering="geometricPrecision" shape-rendering="geometricPrecision" transform="matrix(1,0,0,1,536,34)" stroke="rgb(255,204,0)">
      <rect x="-505" width="50" height="30" y="645" clip-path="url(#clipPath2)" stroke="none"/>
    </g>
    <g text-rendering="geometricPrecision" stroke-miterlimit="1.45" shape-rendering="geometricPrecision" transform="matrix(1,0,0,1,536,34)" stroke-linecap="butt">
      <rect fill="none" x="-505" width="50" height="30" y="645" clip-path="url(#clipPath2)"/>
      <text x="-501.1582" xml:space="preserve" y="664.1543" clip-path="url(#clipPath2)" font-family="sans-serif" stroke="none">master</text>
    </g>
    <g fill="rgb(255,204,0)" text-rendering="geometricPrecision" shape-rendering="geometricPrecision" transform="matrix(1,0,0,1,536,34)" stroke="rgb(255,204,0)">
      <rect x="-375" width="30" height="30" y="585" clip-path="url(#clipPath2)" stroke="none"/>
    </g>
    <g text-rendering="geometricPrecision" stroke-miterlimit="1.45" shape-rendering="geometricPrecision" transform="matrix(1,0,0,1,536,34)" stroke-linecap="butt">
      <rect fill="none" x="-375" width="30" height="30" y="585" clip-path="url(#clipPath2)"/>
      <text x="-367.9219" xml:space="preserve" y="604.1543" clip-path="url(#clipPath2)" font-family="sans-serif" stroke="none">A1</text>
    </g>
    <g fill="rgb(255,204,0)" text-rendering="geometricPrecision" shape-rendering="geometricPrecision" transform="matrix(1,0,0,1,536,34)" stroke="rgb(255,204,0)">
      <rect x="-375" width="30" height="30" y="525" clip-path="url(#clipPath2)" stroke="none"/>
    </g>
    <g text-rendering="geometricPrecision" stroke-miterlimit="1.45" shape-rendering="geometricPrecision" transform="matrix(1,0,0,1,536,34)" stroke-linecap="butt">
      <rect fill="none" x="-375" width="30" height="30" y="525" clip-path="url(#clipPath2)"/>
      <text x="-367.9219" xml:space="preserve" y="544.1543" clip-path="url(#clipPath2)" font-family="sans-serif" stroke="none">A2</text>
    </g>
    <g fill="rgb(255,204,0)" text-rendering="geometricPrecision" shape-rendering="geometricPrecision" transform="matrix(1,0,0,1,536,34)" stroke="rgb(255,204,0)">
      <rect x="-375" width="30" height="30" y="465" clip-path="url(#clipPath2)" stroke="none"/>
    </g>
    <g text-rendering="geometricPrecision" stroke-miterlimit="1.45" shape-rendering="geometricPrecision" transform="matrix(1,0,0,1,536,34)" stroke-linecap="butt">
      <rect fill="none" x="-375" width="30" height="30" y="465" clip-path="url(#clipPath2)"/>
      <text x="-367.9219" xml:space="preserve" y="484.1543" clip-path="url(#clipPath2)" font-family="sans-serif" stroke="none">A3</text>
    </g>
    <g fill="rgb(255,204,0)" text-rendering="geometricPrecision" shape-rendering="geometricPrecision" transform="matrix(1,0,0,1,536,34)" stroke="rgb(255,204,0)">
      <rect x="-255" width="30" height="30" y="585" clip-path="url(#clipPath2)" stroke="none"/>
    </g>
    <g text-rendering="geometricPrecision" stroke-miterlimit="1.45" shape-rendering="geometricPrecision" transform="matrix(1,0,0,1,536,34)" stroke-linecap="butt">
      <rect fill="none" x="-255" width="30" height="30" y="585" clip-path="url(#clipPath2)"/>
      <text x="-247.9336" xml:space="preserve" y="604.1543" clip-path="url(#clipPath2)" font-family="sans-serif" stroke="none">B1</text>
    </g>
    <g fill="rgb(255,204,0)" text-rendering="geometricPrecision" shape-rendering="geometricPrecision" transform="matrix(1,0,0,1,536,34)" stroke="rgb(255,204,0)">
      <rect x="-255" width="30" height="30" y="525" clip-path="url(#clipPath2)" stroke="none"/>
    </g>
    <g text-rendering="geometricPrecision" stroke-miterlimit="1.45" shape-rendering="geometricPrecision" transform="matrix(1,0,0,1,536,34)" stroke-linecap="butt">
      <rect fill="none" x="-255" width="30" height="30" y="525" clip-path="url(#clipPath2)"/>
      <text x="-247.9336" xml:space="preserve" y="544.1543" clip-path="url(#clipPath2)" font-family="sans-serif" stroke="none">B2</text>
    </g>
    <g fill="rgb(255,204,0)" text-rendering="geometricPrecision" shape-rendering="geometricPrecision" transform="matrix(1,0,0,1,536,34)" stroke="rgb(255,204,0)">
      <rect x="-255" width="30" height="30" y="465" clip-path="url(#clipPath2)" stroke="none"/>
    </g>
    <g text-rendering="geometricPrecision" stroke-miterlimit="1.45" shape-rendering="geometricPrecision" transform="matrix(1,0,0,1,536,34)" stroke-linecap="butt">
      <rect fill="none" x="-255" width="30" height="30" y="465" clip-path="url(#clipPath2)"/>
      <text x="-247.9336" xml:space="preserve" y="484.1543" clip-path="url(#clipPath2)" font-family="sans-serif" stroke="none">B3</text>
    </g>
    <g fill="rgb(255,204,0)" text-rendering="geometricPrecision" shape-rendering="geometricPrecision" transform="matrix(1,0,0,1,536,34)" stroke="rgb(255,204,0)">
      <rect x="-495" width="30" height="30" y="465" clip-path="url(#clipPath2)" stroke="none"/>
    </g>
    <g text-rendering="geometricPrecision" stroke-miterlimit="1.45" shape-rendering="geometricPrecision" transform="matrix(1,0,0,1,536,34)" stroke-linecap="butt">
      <rect fill="none" x="-495" width="30" height="30" y="465" clip-path="url(#clipPath2)"/>
      <text x="-484.1045" xml:space="preserve" y="484.1543" clip-path="url(#clipPath2)" font-family="sans-serif" stroke="none">A</text>
    </g>
    <g fill="rgb(255,204,0)" text-rendering="geometricPrecision" shape-rendering="geometricPrecision" transform="matrix(1,0,0,1,536,34)" stroke="rgb(255,204,0)">
      <rect x="-135" width="30" height="30" y="465" clip-path="url(#clipPath2)" stroke="none"/>
    </g>
    <g text-rendering="geometricPrecision" stroke-miterlimit="1.45" shape-rendering="geometricPrecision" transform="matrix(1,0,0,1,536,34)" stroke-linecap="butt">
      <rect fill="none" x="-135" width="30" height="30" y="465" clip-path="url(#clipPath2)"/>
      <text x="-124.1162" xml:space="preserve" y="484.1543" clip-path="url(#clipPath2)" font-family="sans-serif" stroke="none">B</text>
      <path fill="none" stroke-dasharray="6,2" d="M-455 660 L-329 660" clip-path="url(#clipPath2)"/>
      <path stroke-dasharray="6,2" d="M-325 660 L-337 654 L-325 660 L-337 666 Z" clip-path="url(#clipPath2)" stroke="none"/>
      <path fill="none" stroke-miterlimit="10" d="M-325 660 L-337 654 L-325 660 L-337 666 Z" clip-path="url(#clipPath2)" stroke-linecap="square"/>
      <path fill="none" d="M-315 645 L-339.3431 620.6569" clip-path="url(#clipPath2)"/>
      <path d="M-345 615 L-340.0503 627.0208 L-338.636 621.364 L-332.9792 619.9498 Z" clip-path="url(#clipPath2)" stroke="none"/>
      <path fill="none" d="M-360 585 L-360 563" clip-path="url(#clipPath2)"/>
      <path d="M-360 555 L-365 567 L-360 564 L-355 567 Z" clip-path="url(#clipPath2)" stroke="none"/>
      <path fill="none" d="M-360 525 L-360 503" clip-path="url(#clipPath2)"/>
      <path d="M-360 495 L-365 507 L-360 504 L-355 507 Z" clip-path="url(#clipPath2)" stroke="none"/>
      <path fill="none" d="M-285 645 L-260.6569 620.6569" clip-path="url(#clipPath2)"/>
      <path d="M-255 615 L-267.0208 619.9498 L-261.364 621.364 L-259.9497 627.0208 Z" clip-path="url(#clipPath2)" stroke="none"/>
      <path fill="none" d="M-240 585 L-240 563" clip-path="url(#clipPath2)"/>
      <path d="M-240 555 L-245 567 L-240 564 L-235 567 Z" clip-path="url(#clipPath2)" stroke="none"/>
      <path fill="none" d="M-240 525 L-240 503" clip-path="url(#clipPath2)"/>
      <path d="M-240 495 L-245 507 L-240 504 L-235 507 Z" clip-path="url(#clipPath2)" stroke="none"/>
      <path fill="none" stroke-dasharray="6,2" d="M-465 480 L-380 480" clip-path="url(#clipPath2)"/>
      <path stroke-dasharray="6,2" d="M-376 480 L-388 474 L-376 480 L-388 486 Z" clip-path="url(#clipPath2)" stroke="none"/>
      <path fill="none" stroke-miterlimit="10" d="M-376 480 L-388 474 L-376 480 L-388 486 Z" clip-path="url(#clipPath2)" stroke-linecap="square"/>
      <path fill="none" stroke-dasharray="6,2" d="M-135 480 L-220 480" clip-path="url(#clipPath2)"/>
      <path stroke-dasharray="6,2" d="M-224 480 L-212 486 L-224 480 L-212 474 Z" clip-path="url(#clipPath2)" stroke="none"/>
      <path fill="none" stroke-miterlimit="10" d="M-224 480 L-212 486 L-224 480 L-212 474 Z" clip-path="url(#clipPath2)" stroke-linecap="square"/>
    </g>
    <g fill="rgb(245,245,245)" text-rendering="geometricPrecision" shape-rendering="geometricPrecision" transform="matrix(1,0,0,1,536,34)" stroke="rgb(245,245,245)">
      <rect x="50" y="446" clip-path="url(#clipPath2)" width="370" rx="4" ry="4" height="244" stroke="none"/>
      <rect x="50" y="446" clip-path="url(#clipPath2)" fill="rgb(235,235,235)" width="370" height="4" stroke="none"/>
    </g>
    <g text-rendering="geometricPrecision" stroke-miterlimit="1.45" stroke-dasharray="6,2" shape-rendering="geometricPrecision" transform="matrix(1,0,0,1,536,34)" stroke-linecap="butt">
      <rect x="50" y="446" clip-path="url(#clipPath2)" fill="none" width="370" rx="4" ry="4" height="244"/>
    </g>
    <g fill="rgb(255,204,0)" text-rendering="geometricPrecision" shape-rendering="geometricPrecision" transform="matrix(1,0,0,1,536,34)" stroke="rgb(255,204,0)">
      <rect x="195" width="30" height="30" y="585" clip-path="url(#clipPath2)" stroke="none"/>
    </g>
    <g text-rendering="geometricPrecision" stroke-miterlimit="1.45" shape-rendering="geometricPrecision" transform="matrix(1,0,0,1,536,34)" stroke-linecap="butt">
      <rect fill="none" x="195" width="30" height="30" y="585" clip-path="url(#clipPath2)"/>
      <text x="202.0781" xml:space="preserve" y="604.1543" clip-path="url(#clipPath2)" font-family="sans-serif" stroke="none">A1</text>
    </g>
    <g fill="rgb(255,204,0)" text-rendering="geometricPrecision" shape-rendering="geometricPrecision" transform="matrix(1,0,0,1,536,34)" stroke="rgb(255,204,0)">
      <rect x="195" width="30" height="30" y="525" clip-path="url(#clipPath2)" stroke="none"/>
    </g>
    <g text-rendering="geometricPrecision" stroke-miterlimit="1.45" shape-rendering="geometricPrecision" transform="matrix(1,0,0,1,536,34)" stroke-linecap="butt">
      <rect fill="none" x="195" width="30" height="30" y="525" clip-path="url(#clipPath2)"/>
      <text x="202.0781" xml:space="preserve" y="544.1543" clip-path="url(#clipPath2)" font-family="sans-serif" stroke="none">A2</text>
    </g>
    <g fill="rgb(255,204,0)" text-rendering="geometricPrecision" shape-rendering="geometricPrecision" transform="matrix(1,0,0,1,536,34)" stroke="rgb(255,204,0)">
      <rect x="195" width="30" height="30" y="465" clip-path="url(#clipPath2)" stroke="none"/>
    </g>
    <g text-rendering="geometricPrecision" stroke-miterlimit="1.45" shape-rendering="geometricPrecision" transform="matrix(1,0,0,1,536,34)" stroke-linecap="butt">
      <rect fill="none" x="195" width="30" height="30" y="465" clip-path="url(#clipPath2)"/>
      <text x="202.0781" xml:space="preserve" y="484.1543" clip-path="url(#clipPath2)" font-family="sans-serif" stroke="none">A3</text>
    </g>
    <g fill="rgb(255,204,0)" text-rendering="geometricPrecision" shape-rendering="geometricPrecision" transform="matrix(1,0,0,1,536,34)" stroke="rgb(255,204,0)">
      <rect x="186" width="48" height="30" y="645" clip-path="url(#clipPath2)" stroke="none"/>
    </g>
    <g text-rendering="geometricPrecision" stroke-miterlimit="1.45" shape-rendering="geometricPrecision" transform="matrix(1,0,0,1,536,34)" stroke-linecap="butt">
      <rect fill="none" x="186" width="48" height="30" y="645" clip-path="url(#clipPath2)"/>
      <text x="194.1797" xml:space="preserve" y="664.1543" clip-path="url(#clipPath2)" font-family="sans-serif" stroke="none">BASE</text>
    </g>
    <g fill="rgb(255,204,0)" text-rendering="geometricPrecision" shape-rendering="geometricPrecision" transform="matrix(1,0,0,1,536,34)" stroke="rgb(255,204,0)">
      <rect x="255" width="30" height="30" y="585" clip-path="url(#clipPath2)" stroke="none"/>
    </g>
    <g text-rendering="geometricPrecision" stroke-miterlimit="1.45" shape-rendering="geometricPrecision" transform="matrix(1,0,0,1,536,34)" stroke-linecap="butt">
      <rect fill="none" x="255" width="30" height="30" y="585" clip-path="url(#clipPath2)"/>
      <text x="262.0664" xml:space="preserve" y="604.1543" clip-path="url(#clipPath2)" font-family="sans-serif" stroke="none">B1</text>
    </g>
    <g fill="rgb(255,204,0)" text-rendering="geometricPrecision" shape-rendering="geometricPrecision" transform="matrix(1,0,0,1,536,34)" stroke="rgb(255,204,0)">
      <rect x="255" width="30" height="30" y="525" clip-path="url(#clipPath2)" stroke="none"/>
    </g>
    <g text-rendering="geometricPrecision" stroke-miterlimit="1.45" shape-rendering="geometricPrecision" transform="matrix(1,0,0,1,536,34)" stroke-linecap="butt">
      <rect fill="none" x="255" width="30" height="30" y="525" clip-path="url(#clipPath2)"/>
      <text x="262.0664" xml:space="preserve" y="544.1543" clip-path="url(#clipPath2)" font-family="sans-serif" stroke="none">B2</text>
    </g>
    <g fill="rgb(255,204,0)" text-rendering="geometricPrecision" shape-rendering="geometricPrecision" transform="matrix(1,0,0,1,536,34)" stroke="rgb(255,204,0)">
      <rect x="255" width="30" height="30" y="465" clip-path="url(#clipPath2)" stroke="none"/>
    </g>
    <g text-rendering="geometricPrecision" stroke-miterlimit="1.45" shape-rendering="geometricPrecision" transform="matrix(1,0,0,1,536,34)" stroke-linecap="butt">
      <rect fill="none" x="255" width="30" height="30" y="465" clip-path="url(#clipPath2)"/>
      <text x="262.0664" xml:space="preserve" y="484.1543" clip-path="url(#clipPath2)" font-family="sans-serif" stroke="none">B3</text>
    </g>
    <g fill="rgb(255,204,0)" text-rendering="geometricPrecision" shape-rendering="geometricPrecision" transform="matrix(1,0,0,1,536,34)" stroke="rgb(255,204,0)">
      <rect x="65" width="50" height="30" y="465" clip-path="url(#clipPath2)" stroke="none"/>
    </g>
    <g text-rendering="geometricPrecision" stroke-miterlimit="1.45" shape-rendering="geometricPrecision" transform="matrix(1,0,0,1,536,34)" stroke-linecap="butt">
      <rect fill="none" x="65" width="50" height="30" y="465" clip-path="url(#clipPath2)"/>
      <text x="68.8418" xml:space="preserve" y="484.1543" clip-path="url(#clipPath2)" font-family="sans-serif" stroke="none">master</text>
    </g>
    <g fill="rgb(255,204,0)" text-rendering="geometricPrecision" shape-rendering="geometricPrecision" transform="matrix(1,0,0,1,536,34)" stroke="rgb(255,204,0)">
      <rect x="375" width="30" height="30" y="465" clip-path="url(#clipPath2)" stroke="none"/>
    </g>
    <g text-rendering="geometricPrecision" stroke-miterlimit="1.45" shape-rendering="geometricPrecision" transform="matrix(1,0,0,1,536,34)" stroke-linecap="butt">
      <rect fill="none" x="375" width="30" height="30" y="465" clip-path="url(#clipPath2)"/>
      <text x="385.8838" xml:space="preserve" y="484.1543" clip-path="url(#clipPath2)" font-family="sans-serif" stroke="none">B</text>
      <path fill="none" d="M-90.0085 568 L42.0006 568" clip-path="url(#clipPath2)"/>
      <path d="M50.0006 568 L38.0006 563 L41.0006 568 L38.0006 573 Z" clip-path="url(#clipPath2)" stroke="none"/>
      <text x="-45.5146" xml:space="preserve" y="595.1699" clip-path="url(#clipPath2)" font-family="sans-serif" stroke="none">merge A</text>
      <text x="-51.9717" xml:space="preserve" y="609.1387" clip-path="url(#clipPath2)" font-family="sans-serif" stroke="none">(ff master)</text>
      <path fill="none" d="M210 585 L210 563" clip-path="url(#clipPath2)"/>
      <path d="M210 555 L205 567 L210 564 L215 567 Z" clip-path="url(#clipPath2)" stroke="none"/>
      <path fill="none" d="M210 525 L210 503" clip-path="url(#clipPath2)"/>
      <path d="M210 495 L205 507 L210 504 L215 507 Z" clip-path="url(#clipPath2)" stroke="none"/>
      <path fill="none" d="M210 645 L210 623" clip-path="url(#clipPath2)"/>
      <path d="M210 615 L205 627 L210 624 L215 627 Z" clip-path="url(#clipPath2)" stroke="none"/>
      <path fill="none" d="M225 645 L249.3431 620.6569" clip-path="url(#clipPath2)"/>
      <path d="M255 615 L242.9792 619.9498 L248.636 621.364 L250.0502 627.0208 Z" clip-path="url(#clipPath2)" stroke="none"/>
      <path fill="none" d="M270 585 L270 563" clip-path="url(#clipPath2)"/>
      <path d="M270 555 L265 567 L270 564 L275 567 Z" clip-path="url(#clipPath2)" stroke="none"/>
      <path fill="none" d="M270 525 L270 503" clip-path="url(#clipPath2)"/>
      <path d="M270 495 L265 507 L270 504 L275 507 Z" clip-path="url(#clipPath2)" stroke="none"/>
      <path fill="none" stroke-dasharray="6,2" d="M115 480 L190 480" clip-path="url(#clipPath2)"/>
      <path stroke-dasharray="6,2" d="M194 480 L182 474 L194 480 L182 486 Z" clip-path="url(#clipPath2)" stroke="none"/>
      <path fill="none" stroke-miterlimit="10" d="M194 480 L182 474 L194 480 L182 486 Z" clip-path="url(#clipPath2)" stroke-linecap="square"/>
      <path fill="none" stroke-dasharray="6,2" d="M375 480 L290 480" clip-path="url(#clipPath2)"/>
      <path stroke-dasharray="6,2" d="M286 480 L298 486 L286 480 L298 474 Z" clip-path="url(#clipPath2)" stroke="none"/>
      <path fill="none" stroke-miterlimit="10" d="M286 480 L298 486 L286 480 L298 474 Z" clip-path="url(#clipPath2)" stroke-linecap="square"/>
    </g>
    <g fill="rgb(245,245,245)" text-rendering="geometricPrecision" shape-rendering="geometricPrecision" transform="matrix(1,0,0,1,536,34)" stroke="rgb(245,245,245)">
      <rect x="800" y="26" clip-path="url(#clipPath2)" width="250" rx="4" ry="4" height="424" stroke="none"/>
      <rect x="800" y="26" clip-path="url(#clipPath2)" fill="rgb(235,235,235)" width="250" height="4" stroke="none"/>
    </g>
    <g text-rendering="geometricPrecision" stroke-miterlimit="1.45" stroke-dasharray="6,2" shape-rendering="geometricPrecision" transform="matrix(1,0,0,1,536,34)" stroke-linecap="butt">
      <rect x="800" y="26" clip-path="url(#clipPath2)" fill="none" width="250" rx="4" ry="4" height="424"/>
    </g>
    <g fill="rgb(255,204,0)" text-rendering="geometricPrecision" shape-rendering="geometricPrecision" transform="matrix(1,0,0,1,536,34)" stroke="rgb(255,204,0)">
      <rect x="945" width="30" height="30" y="345" clip-path="url(#clipPath2)" stroke="none"/>
    </g>
    <g text-rendering="geometricPrecision" stroke-miterlimit="1.45" shape-rendering="geometricPrecision" transform="matrix(1,0,0,1,536,34)" stroke-linecap="butt">
      <rect fill="none" x="945" width="30" height="30" y="345" clip-path="url(#clipPath2)"/>
      <text x="952.0781" xml:space="preserve" y="364.1543" clip-path="url(#clipPath2)" font-family="sans-serif" stroke="none">A1</text>
    </g>
    <g fill="rgb(255,204,0)" text-rendering="geometricPrecision" shape-rendering="geometricPrecision" transform="matrix(1,0,0,1,536,34)" stroke="rgb(255,204,0)">
      <rect x="945" width="30" height="30" y="165" clip-path="url(#clipPath2)" stroke="none"/>
    </g>
    <g text-rendering="geometricPrecision" stroke-miterlimit="1.45" shape-rendering="geometricPrecision" transform="matrix(1,0,0,1,536,34)" stroke-linecap="butt">
      <rect fill="none" x="945" width="30" height="30" y="165" clip-path="url(#clipPath2)"/>
      <text x="952.0781" xml:space="preserve" y="184.1543" clip-path="url(#clipPath2)" font-family="sans-serif" stroke="none">A2</text>
    </g>
    <g fill="rgb(255,204,0)" text-rendering="geometricPrecision" shape-rendering="geometricPrecision" transform="matrix(1,0,0,1,536,34)" stroke="rgb(255,204,0)">
      <rect x="945" width="30" height="30" y="45" clip-path="url(#clipPath2)" stroke="none"/>
    </g>
    <g text-rendering="geometricPrecision" stroke-miterlimit="1.45" shape-rendering="geometricPrecision" transform="matrix(1,0,0,1,536,34)" stroke-linecap="butt">
      <rect fill="none" x="945" width="30" height="30" y="45" clip-path="url(#clipPath2)"/>
      <text x="952.0781" xml:space="preserve" y="64.1543" clip-path="url(#clipPath2)" font-family="sans-serif" stroke="none">A3</text>
    </g>
    <g fill="rgb(255,204,0)" text-rendering="geometricPrecision" shape-rendering="geometricPrecision" transform="matrix(1,0,0,1,536,34)" stroke="rgb(255,204,0)">
      <rect x="936" width="48" height="30" y="405" clip-path="url(#clipPath2)" stroke="none"/>
    </g>
    <g text-rendering="geometricPrecision" stroke-miterlimit="1.45" shape-rendering="geometricPrecision" transform="matrix(1,0,0,1,536,34)" stroke-linecap="butt">
      <rect fill="none" x="936" width="48" height="30" y="405" clip-path="url(#clipPath2)"/>
      <text x="944.1797" xml:space="preserve" y="424.1543" clip-path="url(#clipPath2)" font-family="sans-serif" stroke="none">BASE</text>
    </g>
    <g fill="rgb(255,204,0)" text-rendering="geometricPrecision" shape-rendering="geometricPrecision" transform="matrix(1,0,0,1,536,34)" stroke="rgb(255,204,0)">
      <rect x="945" width="30" height="30" y="285" clip-path="url(#clipPath2)" stroke="none"/>
    </g>
    <g text-rendering="geometricPrecision" stroke-miterlimit="1.45" shape-rendering="geometricPrecision" transform="matrix(1,0,0,1,536,34)" stroke-linecap="butt">
      <rect fill="none" x="945" width="30" height="30" y="285" clip-path="url(#clipPath2)"/>
      <text x="952.0664" xml:space="preserve" y="304.1543" clip-path="url(#clipPath2)" font-family="sans-serif" stroke="none">B1</text>
    </g>
    <g fill="rgb(255,204,0)" text-rendering="geometricPrecision" shape-rendering="geometricPrecision" transform="matrix(1,0,0,1,536,34)" stroke="rgb(255,204,0)">
      <rect x="945" width="30" height="30" y="225" clip-path="url(#clipPath2)" stroke="none"/>
    </g>
    <g text-rendering="geometricPrecision" stroke-miterlimit="1.45" shape-rendering="geometricPrecision" transform="matrix(1,0,0,1,536,34)" stroke-linecap="butt">
      <rect fill="none" x="945" width="30" height="30" y="225" clip-path="url(#clipPath2)"/>
      <text x="952.0664" xml:space="preserve" y="244.1543" clip-path="url(#clipPath2)" font-family="sans-serif" stroke="none">B2</text>
    </g>
    <g fill="rgb(255,204,0)" text-rendering="geometricPrecision" shape-rendering="geometricPrecision" transform="matrix(1,0,0,1,536,34)" stroke="rgb(255,204,0)">
      <rect x="945" width="30" height="30" y="105" clip-path="url(#clipPath2)" stroke="none"/>
    </g>
    <g text-rendering="geometricPrecision" stroke-miterlimit="1.45" shape-rendering="geometricPrecision" transform="matrix(1,0,0,1,536,34)" stroke-linecap="butt">
      <rect fill="none" x="945" width="30" height="30" y="105" clip-path="url(#clipPath2)"/>
      <text x="952.0664" xml:space="preserve" y="124.1543" clip-path="url(#clipPath2)" font-family="sans-serif" stroke="none">B3</text>
    </g>
    <g fill="rgb(255,102,102)" text-rendering="geometricPrecision" shape-rendering="geometricPrecision" transform="matrix(1,0,0,1,536,34)" stroke="rgb(255,102,102)">
      <rect x="1005" width="30" height="270" y="45" clip-path="url(#clipPath2)" stroke="none"/>
    </g>
    <g text-rendering="geometricPrecision" stroke-miterlimit="1.45" shape-rendering="geometricPrecision" transform="matrix(1,0,0,1,536,34)" stroke-linecap="butt">
      <rect fill="none" x="1005" width="30" height="270" y="45" clip-path="url(#clipPath2)"/>
    </g>
    <g stroke-linecap="butt" transform="matrix(-0,-1,1,-0,1547.0156,299.0654)" text-rendering="geometricPrecision" font-family="sans-serif" shape-rendering="geometricPrecision" font-weight="bold" stroke-miterlimit="1.45">
      <text x="2" xml:space="preserve" y="13.1387" clip-path="url(#clipPath3)" stroke="none">Potentially Broken State</text>
    </g>
    <g fill="rgb(255,204,0)" text-rendering="geometricPrecision" shape-rendering="geometricPrecision" transform="matrix(1,0,0,1,536,34)" stroke="rgb(255,204,0)">
      <rect x="815" width="50" height="30" y="45" clip-path="url(#clipPath2)" stroke="none"/>
    </g>
    <g text-rendering="geometricPrecision" stroke-miterlimit="1.45" shape-rendering="geometricPrecision" transform="matrix(1,0,0,1,536,34)" stroke-linecap="butt">
      <rect fill="none" x="815" width="50" height="30" y="45" clip-path="url(#clipPath2)"/>
      <text x="818.8418" xml:space="preserve" y="64.1543" clip-path="url(#clipPath2)" font-family="sans-serif" stroke="none">master</text>
      <path fill="none" d="M420.0079 479.5179 L792.7986 301.2267" clip-path="url(#clipPath2)"/>
      <path d="M800.0157 297.7751 L787.0328 298.4419 L791.8965 301.6582 L791.3474 307.4632 Z" clip-path="url(#clipPath2)" stroke="none"/>
    </g>
    <g text-rendering="geometricPrecision" stroke-miterlimit="1.45" shape-rendering="geometricPrecision" font-family="sans-serif" transform="matrix(0.9021,-0.4315,0.4315,0.9021,1117.2912,438.5995)" stroke-linecap="butt">
      <text x="2" xml:space="preserve" y="13.1387" clip-path="url(#clipPath4)" stroke="none">merge B</text>
    </g>
    <g font-size="16px" stroke-linecap="butt" transform="matrix(0.9021,-0.4315,0.4315,0.9021,1072.8741,430.329)" text-rendering="geometricPrecision" font-family="sans-serif" shape-rendering="geometricPrecision" font-weight="bold" stroke-miterlimit="1.45">
      <text x="2" xml:space="preserve" y="16.8516" clip-path="url(#clipPath5)" stroke="none">"Merge-and-Fix"</text>
    </g>
    <g text-rendering="geometricPrecision" stroke-miterlimit="1.45" shape-rendering="geometricPrecision" transform="matrix(1,0,0,1,536,34)" stroke-linecap="butt">
      <path fill="none" d="M960 405 L960 383" clip-path="url(#clipPath2)"/>
      <path d="M960 375 L955 387 L960 384 L965 387 Z" clip-path="url(#clipPath2)" stroke="none"/>
      <path fill="none" d="M960 345 L960 323" clip-path="url(#clipPath2)"/>
      <path d="M960 315 L955 327 L960 324 L965 327 Z" clip-path="url(#clipPath2)" stroke="none"/>
      <path fill="none" d="M960 285 L960 263" clip-path="url(#clipPath2)"/>
      <path d="M960 255 L955 267 L960 264 L965 267 Z" clip-path="url(#clipPath2)" stroke="none"/>
      <path fill="none" d="M960 225 L960 203" clip-path="url(#clipPath2)"/>
      <path d="M960 195 L955 207 L960 204 L965 207 Z" clip-path="url(#clipPath2)" stroke="none"/>
      <path fill="none" d="M960 165 L960 143" clip-path="url(#clipPath2)"/>
      <path d="M960 135 L955 147 L960 144 L965 147 Z" clip-path="url(#clipPath2)" stroke="none"/>
      <path fill="none" d="M960 105 L960 83" clip-path="url(#clipPath2)"/>
      <path d="M960 75 L955 87 L960 84 L965 87 Z" clip-path="url(#clipPath2)" stroke="none"/>
      <path fill="none" stroke-dasharray="6,2" d="M1004.9813 300 L980 300" clip-path="url(#clipPath2)"/>
      <path stroke-dasharray="6,2" d="M976 300 L988 306 L976 300 L988 294 Z" clip-path="url(#clipPath2)" stroke="none"/>
      <path fill="none" stroke-miterlimit="10" d="M976 300 L988 306 L976 300 L988 294 Z" clip-path="url(#clipPath2)" stroke-linecap="square"/>
      <path fill="none" stroke-dasharray="6,2" d="M1004.9813 240 L980 240" clip-path="url(#clipPath2)"/>
      <path stroke-dasharray="6,2" d="M976 240 L988 246 L976 240 L988 234 Z" clip-path="url(#clipPath2)" stroke="none"/>
      <path fill="none" stroke-miterlimit="10" d="M976 240 L988 246 L976 240 L988 234 Z" clip-path="url(#clipPath2)" stroke-linecap="square"/>
      <path fill="none" stroke-dasharray="6,2" d="M1005 180 L980 180" clip-path="url(#clipPath2)"/>
      <path stroke-dasharray="6,2" d="M976 180 L988 186 L976 180 L988 174 Z" clip-path="url(#clipPath2)" stroke="none"/>
      <path fill="none" stroke-miterlimit="10" d="M976 180 L988 186 L976 180 L988 174 Z" clip-path="url(#clipPath2)" stroke-linecap="square"/>
      <path fill="none" stroke-dasharray="6,2" d="M1004.9623 120 L980 120" clip-path="url(#clipPath2)"/>
      <path stroke-dasharray="6,2" d="M976 120 L988 126 L976 120 L988 114 Z" clip-path="url(#clipPath2)" stroke="none"/>
      <path fill="none" stroke-miterlimit="10" d="M976 120 L988 126 L976 120 L988 114 Z" clip-path="url(#clipPath2)" stroke-linecap="square"/>
      <path fill="none" stroke-dasharray="6,2" d="M1004.9748 60 L980 60" clip-path="url(#clipPath2)"/>
      <path stroke-dasharray="6,2" d="M976 60 L988 66 L976 60 L988 54 Z" clip-path="url(#clipPath2)" stroke="none"/>
      <path fill="none" stroke-miterlimit="10" d="M976 60 L988 66 L976 60 L988 54 Z" clip-path="url(#clipPath2)" stroke-linecap="square"/>
      <path fill="none" stroke-dasharray="6,2" d="M865 60 L940 60" clip-path="url(#clipPath2)"/>
      <path stroke-dasharray="6,2" d="M944 60 L932 54 L944 60 L932 66 Z" clip-path="url(#clipPath2)" stroke="none"/>
      <path fill="none" stroke-miterlimit="10" d="M944 60 L932 54 L944 60 L932 66 Z" clip-path="url(#clipPath2)" stroke-linecap="square"/>
    </g>
    <g fill="rgb(245,245,245)" text-rendering="geometricPrecision" shape-rendering="geometricPrecision" transform="matrix(1,0,0,1,536,34)" stroke="rgb(245,245,245)">
      <rect x="1310" y="-19" clip-path="url(#clipPath2)" width="250" rx="4" ry="4" height="484" stroke="none"/>
      <rect x="1310" y="-19" clip-path="url(#clipPath2)" fill="rgb(235,235,235)" width="250" height="4" stroke="none"/>
    </g>
    <g text-rendering="geometricPrecision" stroke-miterlimit="1.45" stroke-dasharray="6,2" shape-rendering="geometricPrecision" transform="matrix(1,0,0,1,536,34)" stroke-linecap="butt">
      <rect x="1310" y="-19" clip-path="url(#clipPath2)" fill="none" width="250" rx="4" ry="4" height="484"/>
    </g>
    <g fill="rgb(255,204,0)" text-rendering="geometricPrecision" shape-rendering="geometricPrecision" transform="matrix(1,0,0,1,536,34)" stroke="rgb(255,204,0)">
      <rect x="1455" width="30" height="30" y="360" clip-path="url(#clipPath2)" stroke="none"/>
    </g>
    <g text-rendering="geometricPrecision" stroke-miterlimit="1.45" shape-rendering="geometricPrecision" transform="matrix(1,0,0,1,536,34)" stroke-linecap="butt">
      <rect fill="none" x="1455" width="30" height="30" y="360" clip-path="url(#clipPath2)"/>
      <text x="1462.0781" xml:space="preserve" y="379.1543" clip-path="url(#clipPath2)" font-family="sans-serif" stroke="none">A1</text>
    </g>
    <g fill="rgb(255,204,0)" text-rendering="geometricPrecision" shape-rendering="geometricPrecision" transform="matrix(1,0,0,1,536,34)" stroke="rgb(255,204,0)">
      <rect x="1455" width="30" height="30" y="180" clip-path="url(#clipPath2)" stroke="none"/>
    </g>
    <g text-rendering="geometricPrecision" stroke-miterlimit="1.45" shape-rendering="geometricPrecision" transform="matrix(1,0,0,1,536,34)" stroke-linecap="butt">
      <rect fill="none" x="1455" width="30" height="30" y="180" clip-path="url(#clipPath2)"/>
      <text x="1462.0781" xml:space="preserve" y="199.1543" clip-path="url(#clipPath2)" font-family="sans-serif" stroke="none">A2</text>
    </g>
    <g fill="rgb(255,204,0)" text-rendering="geometricPrecision" shape-rendering="geometricPrecision" transform="matrix(1,0,0,1,536,34)" stroke="rgb(255,204,0)">
      <rect x="1455" width="30" height="30" y="60" clip-path="url(#clipPath2)" stroke="none"/>
    </g>
    <g text-rendering="geometricPrecision" stroke-miterlimit="1.45" shape-rendering="geometricPrecision" transform="matrix(1,0,0,1,536,34)" stroke-linecap="butt">
      <rect fill="none" x="1455" width="30" height="30" y="60" clip-path="url(#clipPath2)"/>
      <text x="1462.0781" xml:space="preserve" y="79.1543" clip-path="url(#clipPath2)" font-family="sans-serif" stroke="none">A3</text>
    </g>
    <g fill="rgb(255,204,0)" text-rendering="geometricPrecision" shape-rendering="geometricPrecision" transform="matrix(1,0,0,1,536,34)" stroke="rgb(255,204,0)">
      <rect x="1446" width="48" height="30" y="420" clip-path="url(#clipPath2)" stroke="none"/>
    </g>
    <g text-rendering="geometricPrecision" stroke-miterlimit="1.45" shape-rendering="geometricPrecision" transform="matrix(1,0,0,1,536,34)" stroke-linecap="butt">
      <rect fill="none" x="1446" width="48" height="30" y="420" clip-path="url(#clipPath2)"/>
      <text x="1454.1797" xml:space="preserve" y="439.1543" clip-path="url(#clipPath2)" font-family="sans-serif" stroke="none">BASE</text>
    </g>
    <g fill="rgb(255,204,0)" text-rendering="geometricPrecision" shape-rendering="geometricPrecision" transform="matrix(1,0,0,1,536,34)" stroke="rgb(255,204,0)">
      <rect x="1455" width="30" height="30" y="300" clip-path="url(#clipPath2)" stroke="none"/>
    </g>
    <g text-rendering="geometricPrecision" stroke-miterlimit="1.45" shape-rendering="geometricPrecision" transform="matrix(1,0,0,1,536,34)" stroke-linecap="butt">
      <rect fill="none" x="1455" width="30" height="30" y="300" clip-path="url(#clipPath2)"/>
      <text x="1462.0664" xml:space="preserve" y="319.1543" clip-path="url(#clipPath2)" font-family="sans-serif" stroke="none">B1</text>
    </g>
    <g fill="rgb(255,204,0)" text-rendering="geometricPrecision" shape-rendering="geometricPrecision" transform="matrix(1,0,0,1,536,34)" stroke="rgb(255,204,0)">
      <rect x="1455" width="30" height="30" y="240" clip-path="url(#clipPath2)" stroke="none"/>
    </g>
    <g text-rendering="geometricPrecision" stroke-miterlimit="1.45" shape-rendering="geometricPrecision" transform="matrix(1,0,0,1,536,34)" stroke-linecap="butt">
      <rect fill="none" x="1455" width="30" height="30" y="240" clip-path="url(#clipPath2)"/>
      <text x="1462.0664" xml:space="preserve" y="259.1543" clip-path="url(#clipPath2)" font-family="sans-serif" stroke="none">B2</text>
    </g>
    <g fill="rgb(255,204,0)" text-rendering="geometricPrecision" shape-rendering="geometricPrecision" transform="matrix(1,0,0,1,536,34)" stroke="rgb(255,204,0)">
      <rect x="1455" width="30" height="30" y="120" clip-path="url(#clipPath2)" stroke="none"/>
    </g>
    <g text-rendering="geometricPrecision" stroke-miterlimit="1.45" shape-rendering="geometricPrecision" transform="matrix(1,0,0,1,536,34)" stroke-linecap="butt">
      <rect fill="none" x="1455" width="30" height="30" y="120" clip-path="url(#clipPath2)"/>
      <text x="1462.0664" xml:space="preserve" y="139.1543" clip-path="url(#clipPath2)" font-family="sans-serif" stroke="none">B3</text>
    </g>
    <g fill="rgb(255,102,102)" text-rendering="geometricPrecision" shape-rendering="geometricPrecision" transform="matrix(1,0,0,1,536,34)" stroke="rgb(255,102,102)">
      <rect x="1515" width="30" height="270" y="60" clip-path="url(#clipPath2)" stroke="none"/>
    </g>
    <g text-rendering="geometricPrecision" stroke-miterlimit="1.45" shape-rendering="geometricPrecision" transform="matrix(1,0,0,1,536,34)" stroke-linecap="butt">
      <rect fill="none" x="1515" width="30" height="270" y="60" clip-path="url(#clipPath2)"/>
    </g>
    <g stroke-linecap="butt" transform="matrix(-0,-1,1,-0,2057.0156,314.0654)" text-rendering="geometricPrecision" font-family="sans-serif" shape-rendering="geometricPrecision" font-weight="bold" stroke-miterlimit="1.45">
      <text x="2" xml:space="preserve" y="13.1387" clip-path="url(#clipPath6)" stroke="none">Potentially Broken State</text>
    </g>
    <g fill="rgb(255,204,0)" text-rendering="geometricPrecision" shape-rendering="geometricPrecision" transform="matrix(1,0,0,1,536,34)" stroke="rgb(255,204,0)">
      <rect x="1325" width="50" height="30" y="0" clip-path="url(#clipPath2)" stroke="none"/>
    </g>
    <g text-rendering="geometricPrecision" stroke-miterlimit="1.45" shape-rendering="geometricPrecision" transform="matrix(1,0,0,1,536,34)" stroke-linecap="butt">
      <rect fill="none" x="1325" width="50" height="30" y="0" clip-path="url(#clipPath2)"/>
      <text x="1328.8418" xml:space="preserve" y="19.1543" clip-path="url(#clipPath2)" font-family="sans-serif" stroke="none">master</text>
    </g>
    <g fill="rgb(255,204,0)" text-rendering="geometricPrecision" shape-rendering="geometricPrecision" transform="matrix(1,0,0,1,536,34)" stroke="rgb(255,204,0)">
      <rect x="1455" width="30" height="30" y="0" clip-path="url(#clipPath2)" stroke="none"/>
    </g>
    <g text-rendering="geometricPrecision" stroke-miterlimit="1.45" shape-rendering="geometricPrecision" transform="matrix(1,0,0,1,536,34)" stroke-linecap="butt">
      <rect fill="none" x="1455" width="30" height="30" y="0" clip-path="url(#clipPath2)"/>
      <text x="1460.6689" xml:space="preserve" y="19.1543" clip-path="url(#clipPath2)" font-family="sans-serif" stroke="none">FIX</text>
      <path fill="none" d="M1049.9613 238 L1301.988 238" clip-path="url(#clipPath2)"/>
      <path d="M1309.988 238 L1297.988 233 L1300.988 238 L1297.988 243 Z" clip-path="url(#clipPath2)" stroke="none"/>
      <text x="1121.2627" xml:space="preserve" y="272.1543" clip-path="url(#clipPath2)" font-family="sans-serif" stroke="none">"fix" broken master</text>
      <path fill="none" d="M1470 420 L1470 398" clip-path="url(#clipPath2)"/>
      <path d="M1470 390 L1465 402 L1470 399 L1475 402 Z" clip-path="url(#clipPath2)" stroke="none"/>
      <path fill="none" d="M1470 360 L1470 338" clip-path="url(#clipPath2)"/>
      <path d="M1470 330 L1465 342 L1470 339 L1475 342 Z" clip-path="url(#clipPath2)" stroke="none"/>
      <path fill="none" d="M1470 300 L1470 278" clip-path="url(#clipPath2)"/>
      <path d="M1470 270 L1465 282 L1470 279 L1475 282 Z" clip-path="url(#clipPath2)" stroke="none"/>
      <path fill="none" d="M1470 240 L1470 218" clip-path="url(#clipPath2)"/>
      <path d="M1470 210 L1465 222 L1470 219 L1475 222 Z" clip-path="url(#clipPath2)" stroke="none"/>
      <path fill="none" d="M1470 180 L1470 158" clip-path="url(#clipPath2)"/>
      <path d="M1470 150 L1465 162 L1470 159 L1475 162 Z" clip-path="url(#clipPath2)" stroke="none"/>
      <path fill="none" d="M1470 120 L1470 98" clip-path="url(#clipPath2)"/>
      <path d="M1470 90 L1465 102 L1470 99 L1475 102 Z" clip-path="url(#clipPath2)" stroke="none"/>
      <path fill="none" stroke-dasharray="6,2" d="M1514.9812 315 L1490 315" clip-path="url(#clipPath2)"/>
      <path stroke-dasharray="6,2" d="M1486 315 L1498 321 L1486 315 L1498 309 Z" clip-path="url(#clipPath2)" stroke="none"/>
      <path fill="none" stroke-miterlimit="10" d="M1486 315 L1498 321 L1486 315 L1498 309 Z" clip-path="url(#clipPath2)" stroke-linecap="square"/>
      <path fill="none" stroke-dasharray="6,2" d="M1514.9812 255 L1490 255" clip-path="url(#clipPath2)"/>
      <path stroke-dasharray="6,2" d="M1486 255 L1498 261 L1486 255 L1498 249 Z" clip-path="url(#clipPath2)" stroke="none"/>
      <path fill="none" stroke-miterlimit="10" d="M1486 255 L1498 261 L1486 255 L1498 249 Z" clip-path="url(#clipPath2)" stroke-linecap="square"/>
      <path fill="none" stroke-dasharray="6,2" d="M1515 195 L1490 195" clip-path="url(#clipPath2)"/>
      <path stroke-dasharray="6,2" d="M1486 195 L1498 201 L1486 195 L1498 189 Z" clip-path="url(#clipPath2)" stroke="none"/>
      <path fill="none" stroke-miterlimit="10" d="M1486 195 L1498 201 L1486 195 L1498 189 Z" clip-path="url(#clipPath2)" stroke-linecap="square"/>
      <path fill="none" stroke-dasharray="6,2" d="M1514.9623 135 L1490 135" clip-path="url(#clipPath2)"/>
      <path stroke-dasharray="6,2" d="M1486 135 L1498 141 L1486 135 L1498 129 Z" clip-path="url(#clipPath2)" stroke="none"/>
      <path fill="none" stroke-miterlimit="10" d="M1486 135 L1498 141 L1486 135 L1498 129 Z" clip-path="url(#clipPath2)" stroke-linecap="square"/>
      <path fill="none" stroke-dasharray="6,2" d="M1514.9747 75 L1490 75" clip-path="url(#clipPath2)"/>
      <path stroke-dasharray="6,2" d="M1486 75 L1498 81 L1486 75 L1498 69 Z" clip-path="url(#clipPath2)" stroke="none"/>
      <path fill="none" stroke-miterlimit="10" d="M1486 75 L1498 81 L1486 75 L1498 69 Z" clip-path="url(#clipPath2)" stroke-linecap="square"/>
      <path fill="none" stroke-dasharray="6,2" d="M1375 15 L1450 15" clip-path="url(#clipPath2)"/>
      <path stroke-dasharray="6,2" d="M1454 15 L1442 9 L1454 15 L1442 21 Z" clip-path="url(#clipPath2)" stroke="none"/>
      <path fill="none" stroke-miterlimit="10" d="M1454 15 L1442 9 L1454 15 L1442 21 Z" clip-path="url(#clipPath2)" stroke-linecap="square"/>
      <path fill="none" d="M1470 60 L1470 38" clip-path="url(#clipPath2)"/>
      <path d="M1470 30 L1465 42 L1470 39 L1475 42 Z" clip-path="url(#clipPath2)" stroke="none"/>
    </g>
    <g fill="rgb(245,245,245)" text-rendering="geometricPrecision" shape-rendering="geometricPrecision" transform="matrix(1,0,0,1,536,34)" stroke="rgb(245,245,245)">
      <rect x="740" y="716" clip-path="url(#clipPath2)" width="386.25" rx="4" ry="4" height="424" stroke="none"/>
      <rect x="740" y="716" clip-path="url(#clipPath2)" fill="rgb(235,235,235)" width="386.25" height="4" stroke="none"/>
    </g>
    <g text-rendering="geometricPrecision" stroke-miterlimit="1.45" stroke-dasharray="6,2" shape-rendering="geometricPrecision" transform="matrix(1,0,0,1,536,34)" stroke-linecap="butt">
      <rect x="740" y="716" clip-path="url(#clipPath2)" fill="none" width="386.25" rx="4" ry="4" height="424"/>
    </g>
    <g fill="rgb(255,204,0)" text-rendering="geometricPrecision" shape-rendering="geometricPrecision" transform="matrix(1,0,0,1,536,34)" stroke="rgb(255,204,0)">
      <rect x="885" width="30" height="30" y="1035" clip-path="url(#clipPath2)" stroke="none"/>
    </g>
    <g text-rendering="geometricPrecision" stroke-miterlimit="1.45" shape-rendering="geometricPrecision" transform="matrix(1,0,0,1,536,34)" stroke-linecap="butt">
      <rect fill="none" x="885" width="30" height="30" y="1035" clip-path="url(#clipPath2)"/>
      <text x="892.0781" xml:space="preserve" y="1054.1543" clip-path="url(#clipPath2)" font-family="sans-serif" stroke="none">A1</text>
    </g>
    <g fill="rgb(255,204,0)" text-rendering="geometricPrecision" shape-rendering="geometricPrecision" transform="matrix(1,0,0,1,536,34)" stroke="rgb(255,204,0)">
      <rect x="885" width="30" height="30" y="975" clip-path="url(#clipPath2)" stroke="none"/>
    </g>
    <g text-rendering="geometricPrecision" stroke-miterlimit="1.45" shape-rendering="geometricPrecision" transform="matrix(1,0,0,1,536,34)" stroke-linecap="butt">
      <rect fill="none" x="885" width="30" height="30" y="975" clip-path="url(#clipPath2)"/>
      <text x="892.0781" xml:space="preserve" y="994.1543" clip-path="url(#clipPath2)" font-family="sans-serif" stroke="none">A2</text>
    </g>
    <g fill="rgb(255,204,0)" text-rendering="geometricPrecision" shape-rendering="geometricPrecision" transform="matrix(1,0,0,1,536,34)" stroke="rgb(255,204,0)">
      <rect x="885" width="30" height="30" y="915" clip-path="url(#clipPath2)" stroke="none"/>
    </g>
    <g text-rendering="geometricPrecision" stroke-miterlimit="1.45" shape-rendering="geometricPrecision" transform="matrix(1,0,0,1,536,34)" stroke-linecap="butt">
      <rect fill="none" x="885" width="30" height="30" y="915" clip-path="url(#clipPath2)"/>
      <text x="892.0781" xml:space="preserve" y="934.1543" clip-path="url(#clipPath2)" font-family="sans-serif" stroke="none">A3</text>
    </g>
    <g fill="rgb(255,204,0)" text-rendering="geometricPrecision" shape-rendering="geometricPrecision" transform="matrix(1,0,0,1,536,34)" stroke="rgb(255,204,0)">
      <rect x="876" width="48" height="30" y="1095" clip-path="url(#clipPath2)" stroke="none"/>
    </g>
    <g text-rendering="geometricPrecision" stroke-miterlimit="1.45" shape-rendering="geometricPrecision" transform="matrix(1,0,0,1,536,34)" stroke-linecap="butt">
      <rect fill="none" x="876" width="48" height="30" y="1095" clip-path="url(#clipPath2)"/>
      <text x="884.1797" xml:space="preserve" y="1114.1543" clip-path="url(#clipPath2)" font-family="sans-serif" stroke="none">BASE</text>
    </g>
    <g fill="rgb(255,204,0)" text-rendering="geometricPrecision" shape-rendering="geometricPrecision" transform="matrix(1,0,0,1,536,34)" stroke="rgb(255,204,0)">
      <rect x="961.25" width="30" height="30" y="855" clip-path="url(#clipPath2)" stroke="none"/>
    </g>
    <g text-rendering="geometricPrecision" stroke-miterlimit="1.45" shape-rendering="geometricPrecision" transform="matrix(1,0,0,1,536,34)" stroke-linecap="butt">
      <rect fill="none" x="961.25" width="30" height="30" y="855" clip-path="url(#clipPath2)"/>
      <text x="968.3164" xml:space="preserve" y="874.1543" clip-path="url(#clipPath2)" font-family="sans-serif" stroke="none">B1</text>
    </g>
    <g fill="rgb(255,204,0)" text-rendering="geometricPrecision" shape-rendering="geometricPrecision" transform="matrix(1,0,0,1,536,34)" stroke="rgb(255,204,0)">
      <rect x="961.25" width="30" height="30" y="795" clip-path="url(#clipPath2)" stroke="none"/>
    </g>
    <g text-rendering="geometricPrecision" stroke-miterlimit="1.45" shape-rendering="geometricPrecision" transform="matrix(1,0,0,1,536,34)" stroke-linecap="butt">
      <rect fill="none" x="961.25" width="30" height="30" y="795" clip-path="url(#clipPath2)"/>
      <text x="968.3164" xml:space="preserve" y="814.1543" clip-path="url(#clipPath2)" font-family="sans-serif" stroke="none">B2</text>
    </g>
    <g fill="rgb(255,204,0)" text-rendering="geometricPrecision" shape-rendering="geometricPrecision" transform="matrix(1,0,0,1,536,34)" stroke="rgb(255,204,0)">
      <rect x="961.25" width="30" height="30" y="735" clip-path="url(#clipPath2)" stroke="none"/>
    </g>
    <g text-rendering="geometricPrecision" stroke-miterlimit="1.45" shape-rendering="geometricPrecision" transform="matrix(1,0,0,1,536,34)" stroke-linecap="butt">
      <rect fill="none" x="961.25" width="30" height="30" y="735" clip-path="url(#clipPath2)"/>
      <text x="968.3164" xml:space="preserve" y="754.1543" clip-path="url(#clipPath2)" font-family="sans-serif" stroke="none">B3</text>
    </g>
    <g fill="rgb(255,204,0)" text-rendering="geometricPrecision" shape-rendering="geometricPrecision" transform="matrix(1,0,0,1,536,34)" stroke="rgb(255,204,0)">
      <rect x="755" width="50" height="30" y="915" clip-path="url(#clipPath2)" stroke="none"/>
    </g>
    <g text-rendering="geometricPrecision" stroke-miterlimit="1.45" shape-rendering="geometricPrecision" transform="matrix(1,0,0,1,536,34)" stroke-linecap="butt">
      <rect fill="none" x="755" width="50" height="30" y="915" clip-path="url(#clipPath2)"/>
      <text x="758.8418" xml:space="preserve" y="934.1543" clip-path="url(#clipPath2)" font-family="sans-serif" stroke="none">master</text>
    </g>
    <g fill="rgb(255,204,0)" text-rendering="geometricPrecision" shape-rendering="geometricPrecision" transform="matrix(1,0,0,1,536,34)" stroke="rgb(255,204,0)">
      <rect x="1081.25" width="30" height="30" y="735" clip-path="url(#clipPath2)" stroke="none"/>
    </g>
    <g text-rendering="geometricPrecision" stroke-miterlimit="1.45" shape-rendering="geometricPrecision" transform="matrix(1,0,0,1,536,34)" stroke-linecap="butt">
      <rect fill="none" x="1081.25" width="30" height="30" y="735" clip-path="url(#clipPath2)"/>
      <text x="1092.1338" xml:space="preserve" y="754.1543" clip-path="url(#clipPath2)" font-family="sans-serif" stroke="none">B</text>
      <path fill="none" d="M419.9707 663.3833 L732.8615 824.7307" clip-path="url(#clipPath2)"/>
      <path d="M739.9717 828.3973 L731.5978 818.4536 L731.9727 824.2724 L727.0147 827.3414 Z" clip-path="url(#clipPath2)" stroke="none"/>
    </g>
    <g text-rendering="geometricPrecision" stroke-miterlimit="1.45" shape-rendering="geometricPrecision" font-family="sans-serif" transform="matrix(0.8888,0.4583,-0.4583,0.8888,1094.8011,771.2238)" stroke-linecap="butt">
      <text x="2" xml:space="preserve" y="13.1387" clip-path="url(#clipPath7)" stroke="none">rebase B</text>
    </g>
    <g font-size="16px" stroke-linecap="butt" transform="matrix(0.8888,0.4583,-0.4583,0.8888,1026.7128,706.1564)" text-rendering="geometricPrecision" font-family="sans-serif" shape-rendering="geometricPrecision" font-weight="bold" stroke-miterlimit="1.45">
      <text x="2" xml:space="preserve" y="16.8516" clip-path="url(#clipPath8)" stroke="none">"Rebase/Fast-Forward"</text>
    </g>
    <g text-rendering="geometricPrecision" stroke-miterlimit="1.45" shape-rendering="geometricPrecision" transform="matrix(1,0,0,1,536,34)" stroke-linecap="butt">
      <path fill="none" d="M900 1035 L900 1013" clip-path="url(#clipPath2)"/>
      <path d="M900 1005 L895 1017 L900 1014 L905 1017 Z" clip-path="url(#clipPath2)" stroke="none"/>
      <path fill="none" d="M900 975 L900 953" clip-path="url(#clipPath2)"/>
      <path d="M900 945 L895 957 L900 954 L905 957 Z" clip-path="url(#clipPath2)" stroke="none"/>
      <path fill="none" d="M900 1095 L900 1073" clip-path="url(#clipPath2)"/>
      <path d="M900 1065 L895 1077 L900 1074 L905 1077 Z" clip-path="url(#clipPath2)" stroke="none"/>
      <path fill="none" d="M915 918.1967 L954.963 886.7504" clip-path="url(#clipPath2)"/>
      <path d="M961.25 881.8033 L948.7276 885.2946 L954.1772 887.3688 L954.9115 893.1533 Z" clip-path="url(#clipPath2)" stroke="none"/>
      <path fill="none" d="M976.25 855 L976.25 833" clip-path="url(#clipPath2)"/>
      <path d="M976.25 825 L971.25 837 L976.25 834 L981.25 837 Z" clip-path="url(#clipPath2)" stroke="none"/>
      <path fill="none" d="M976.25 795 L976.25 773" clip-path="url(#clipPath2)"/>
      <path d="M976.25 765 L971.25 777 L976.25 774 L981.25 777 Z" clip-path="url(#clipPath2)" stroke="none"/>
      <path fill="none" stroke-dasharray="6,2" d="M805 930 L880 930" clip-path="url(#clipPath2)"/>
      <path stroke-dasharray="6,2" d="M884 930 L872 924 L884 930 L872 936 Z" clip-path="url(#clipPath2)" stroke="none"/>
      <path fill="none" stroke-miterlimit="10" d="M884 930 L872 924 L884 930 L872 936 Z" clip-path="url(#clipPath2)" stroke-linecap="square"/>
      <path fill="none" stroke-dasharray="6,2" d="M1081.25 750 L996.25 750" clip-path="url(#clipPath2)"/>
      <path stroke-dasharray="6,2" d="M992.25 750 L1004.25 756 L992.25 750 L1004.25 744 Z" clip-path="url(#clipPath2)" stroke="none"/>
      <path fill="none" stroke-miterlimit="10" d="M992.25 750 L1004.25 756 L992.25 750 L1004.25 744 Z" clip-path="url(#clipPath2)" stroke-linecap="square"/>
    </g>
    <g fill="rgb(245,245,245)" text-rendering="geometricPrecision" shape-rendering="geometricPrecision" transform="matrix(1,0,0,1,536,34)" stroke="rgb(245,245,245)">
      <rect x="1340" y="716" clip-path="url(#clipPath2)" width="199" rx="4" ry="4" height="424" stroke="none"/>
      <rect x="1340" y="716" clip-path="url(#clipPath2)" fill="rgb(235,235,235)" width="199" height="4" stroke="none"/>
    </g>
    <g text-rendering="geometricPrecision" stroke-miterlimit="1.45" stroke-dasharray="6,2" shape-rendering="geometricPrecision" transform="matrix(1,0,0,1,536,34)" stroke-linecap="butt">
      <rect x="1340" y="716" clip-path="url(#clipPath2)" fill="none" width="199" rx="4" ry="4" height="424"/>
    </g>
    <g fill="rgb(255,204,0)" text-rendering="geometricPrecision" shape-rendering="geometricPrecision" transform="matrix(1,0,0,1,536,34)" stroke="rgb(255,204,0)">
      <rect x="1485" width="30" height="30" y="1035" clip-path="url(#clipPath2)" stroke="none"/>
    </g>
    <g text-rendering="geometricPrecision" stroke-miterlimit="1.45" shape-rendering="geometricPrecision" transform="matrix(1,0,0,1,536,34)" stroke-linecap="butt">
      <rect fill="none" x="1485" width="30" height="30" y="1035" clip-path="url(#clipPath2)"/>
      <text x="1492.0781" xml:space="preserve" y="1054.1543" clip-path="url(#clipPath2)" font-family="sans-serif" stroke="none">A1</text>
    </g>
    <g fill="rgb(255,204,0)" text-rendering="geometricPrecision" shape-rendering="geometricPrecision" transform="matrix(1,0,0,1,536,34)" stroke="rgb(255,204,0)">
      <rect x="1485" width="30" height="30" y="975" clip-path="url(#clipPath2)" stroke="none"/>
    </g>
    <g text-rendering="geometricPrecision" stroke-miterlimit="1.45" shape-rendering="geometricPrecision" transform="matrix(1,0,0,1,536,34)" stroke-linecap="butt">
      <rect fill="none" x="1485" width="30" height="30" y="975" clip-path="url(#clipPath2)"/>
      <text x="1492.0781" xml:space="preserve" y="994.1543" clip-path="url(#clipPath2)" font-family="sans-serif" stroke="none">A2</text>
    </g>
    <g fill="rgb(255,204,0)" text-rendering="geometricPrecision" shape-rendering="geometricPrecision" transform="matrix(1,0,0,1,536,34)" stroke="rgb(255,204,0)">
      <rect x="1485" width="30" height="30" y="915" clip-path="url(#clipPath2)" stroke="none"/>
    </g>
    <g text-rendering="geometricPrecision" stroke-miterlimit="1.45" shape-rendering="geometricPrecision" transform="matrix(1,0,0,1,536,34)" stroke-linecap="butt">
      <rect fill="none" x="1485" width="30" height="30" y="915" clip-path="url(#clipPath2)"/>
      <text x="1492.0781" xml:space="preserve" y="934.1543" clip-path="url(#clipPath2)" font-family="sans-serif" stroke="none">A3</text>
    </g>
    <g fill="rgb(255,204,0)" text-rendering="geometricPrecision" shape-rendering="geometricPrecision" transform="matrix(1,0,0,1,536,34)" stroke="rgb(255,204,0)">
      <rect x="1476" width="48" height="30" y="1095" clip-path="url(#clipPath2)" stroke="none"/>
    </g>
    <g text-rendering="geometricPrecision" stroke-miterlimit="1.45" shape-rendering="geometricPrecision" transform="matrix(1,0,0,1,536,34)" stroke-linecap="butt">
      <rect fill="none" x="1476" width="48" height="30" y="1095" clip-path="url(#clipPath2)"/>
      <text x="1484.1797" xml:space="preserve" y="1114.1543" clip-path="url(#clipPath2)" font-family="sans-serif" stroke="none">BASE</text>
    </g>
    <g fill="rgb(255,204,0)" text-rendering="geometricPrecision" shape-rendering="geometricPrecision" transform="matrix(1,0,0,1,536,34)" stroke="rgb(255,204,0)">
      <rect x="1485" width="30" height="30" y="855" clip-path="url(#clipPath2)" stroke="none"/>
    </g>
    <g text-rendering="geometricPrecision" stroke-miterlimit="1.45" shape-rendering="geometricPrecision" transform="matrix(1,0,0,1,536,34)" stroke-linecap="butt">
      <rect fill="none" x="1485" width="30" height="30" y="855" clip-path="url(#clipPath2)"/>
      <text x="1492.0664" xml:space="preserve" y="874.1543" clip-path="url(#clipPath2)" font-family="sans-serif" stroke="none">B1</text>
    </g>
    <g fill="rgb(255,204,0)" text-rendering="geometricPrecision" shape-rendering="geometricPrecision" transform="matrix(1,0,0,1,536,34)" stroke="rgb(255,204,0)">
      <rect x="1485" width="30" height="30" y="795" clip-path="url(#clipPath2)" stroke="none"/>
    </g>
    <g text-rendering="geometricPrecision" stroke-miterlimit="1.45" shape-rendering="geometricPrecision" transform="matrix(1,0,0,1,536,34)" stroke-linecap="butt">
      <rect fill="none" x="1485" width="30" height="30" y="795" clip-path="url(#clipPath2)"/>
      <text x="1492.0664" xml:space="preserve" y="814.1543" clip-path="url(#clipPath2)" font-family="sans-serif" stroke="none">B2</text>
    </g>
    <g fill="rgb(255,204,0)" text-rendering="geometricPrecision" shape-rendering="geometricPrecision" transform="matrix(1,0,0,1,536,34)" stroke="rgb(255,204,0)">
      <rect x="1485" width="30" height="30" y="735" clip-path="url(#clipPath2)" stroke="none"/>
    </g>
    <g text-rendering="geometricPrecision" stroke-miterlimit="1.45" shape-rendering="geometricPrecision" transform="matrix(1,0,0,1,536,34)" stroke-linecap="butt">
      <rect fill="none" x="1485" width="30" height="30" y="735" clip-path="url(#clipPath2)"/>
      <text x="1492.0664" xml:space="preserve" y="754.1543" clip-path="url(#clipPath2)" font-family="sans-serif" stroke="none">B3</text>
    </g>
    <g fill="rgb(255,204,0)" text-rendering="geometricPrecision" shape-rendering="geometricPrecision" transform="matrix(1,0,0,1,536,34)" stroke="rgb(255,204,0)">
      <rect x="1355" width="50" height="30" y="735" clip-path="url(#clipPath2)" stroke="none"/>
    </g>
    <g text-rendering="geometricPrecision" stroke-miterlimit="1.45" shape-rendering="geometricPrecision" transform="matrix(1,0,0,1,536,34)" stroke-linecap="butt">
      <rect fill="none" x="1355" width="50" height="30" y="735" clip-path="url(#clipPath2)"/>
      <text x="1358.8418" xml:space="preserve" y="754.1543" clip-path="url(#clipPath2)" font-family="sans-serif" stroke="none">master</text>
      <path fill="none" d="M1126.2609 928 L1331.9685 928" clip-path="url(#clipPath2)"/>
      <path d="M1339.9685 928 L1327.9685 923 L1330.9685 928 L1327.9685 933 Z" clip-path="url(#clipPath2)" stroke="none"/>
      <text x="1207.5986" xml:space="preserve" y="955.1699" clip-path="url(#clipPath2)" font-family="sans-serif" stroke="none">merge B</text>
      <text x="1201.1533" xml:space="preserve" y="969.1387" clip-path="url(#clipPath2)" font-family="sans-serif" stroke="none">(ff master)</text>
      <path fill="none" d="M1500 1035 L1500 1013" clip-path="url(#clipPath2)"/>
      <path d="M1500 1005 L1495 1017 L1500 1014 L1505 1017 Z" clip-path="url(#clipPath2)" stroke="none"/>
      <path fill="none" d="M1500 975 L1500 953" clip-path="url(#clipPath2)"/>
      <path d="M1500 945 L1495 957 L1500 954 L1505 957 Z" clip-path="url(#clipPath2)" stroke="none"/>
      <path fill="none" d="M1500 1095 L1500 1073" clip-path="url(#clipPath2)"/>
      <path d="M1500 1065 L1495 1077 L1500 1074 L1505 1077 Z" clip-path="url(#clipPath2)" stroke="none"/>
      <path fill="none" d="M1500 915 L1500 893" clip-path="url(#clipPath2)"/>
      <path d="M1500 885 L1495 897 L1500 894 L1505 897 Z" clip-path="url(#clipPath2)" stroke="none"/>
      <path fill="none" d="M1500 855 L1500 833" clip-path="url(#clipPath2)"/>
      <path d="M1500 825 L1495 837 L1500 834 L1505 837 Z" clip-path="url(#clipPath2)" stroke="none"/>
      <path fill="none" d="M1500 795 L1500 773" clip-path="url(#clipPath2)"/>
      <path d="M1500 765 L1495 777 L1500 774 L1505 777 Z" clip-path="url(#clipPath2)" stroke="none"/>
      <path fill="none" stroke-dasharray="6,2" d="M1405 750 L1480 750" clip-path="url(#clipPath2)"/>
      <path stroke-dasharray="6,2" d="M1484 750 L1472 744 L1484 750 L1472 756 Z" clip-path="url(#clipPath2)" stroke="none"/>
      <path fill="none" stroke-miterlimit="10" d="M1484 750 L1472 744 L1484 750 L1472 756 Z" clip-path="url(#clipPath2)" stroke-linecap="square"/>
    </g>
  </g>
</svg>
